+-----------------------------------------------------------------------------+
|                      Category Information                        |    square|
|                      #|description                               |    meters|
|-----------------------------------------------------------------------------|
|1228.146967-1250.959961|from  to . . . . . . . . . . . . . . . . .|   192,823|
|1205.333972-1228.146967|from  to . . . . . . . . . . . . . . . . .| 1,688,302|
|1022.830017-1045.643011|from  to . . . . . . . . . . . . . . . . .| 3,816,216|
|1045.643011-1068.456006|from  to . . . . . . . . . . . . . . . . .| 3,949,951|
|1182.520978-1205.333972|from  to . . . . . . . . . . . . . . . . .| 4,665,067|
|   1068.456006-1091.269|from  to . . . . . . . . . . . . . . . . .| 4,991,098|
|   1091.269-1114.081995|from  to . . . . . . . . . . . . . . . . .| 5,296,222|
|1114.081995-1136.894989|from  to . . . . . . . . . . . . . . . . .| 5,952,907|
|1136.894989-1159.707983|from  to . . . . . . . . . . . . . . . . .| 7,038,303|
|1159.707983-1182.520978|from  to . . . . . . . . . . . . . . . . .| 7,333,390|
|-----------------------------------------------------------------------------|
|TOTAL                                                             |44,924,280|
+-----------------------------------------------------------------------------+
