+-----------------------------------------------------------------------------+
|                      Category Information                        |    square|
|#|description                                                     |    meters|
|-----------------------------------------------------------------------------|
|4| . . . . . . . . . . . . . . . . . . . . . . . . . . . . . . . .|      1706|
|2| . . . . . . . . . . . . . . . . . . . . . . . . . . . . . . . .| 4,899,628|
|3| . . . . . . . . . . . . . . . . . . . . . . . . . . . . . . . .|10,314,092|
|-----------------------------------------------------------------------------|
|TOTAL                                                             |15,215,427|
+-----------------------------------------------------------------------------+
