,,,,,,,,,,,,,,,,,,,
,,,,,,,,,,,,,,,,,,,
,,,,,,,,,,,,,,,,,,,
,,,,,,,,,,,,,,,,,,,
,,,,,,,,,,,,,,,,,,,
,,,,,,,,,,,,,,,,,,,
,,,,,,,,,,,,,,,,,,,
,,,,,,,,,,,,,,,,,,,
,,,,,,,,,,,,,,,,,,,
,,,,,,,,,,,,,,,,,,,
,,,,,,,,,,,,,,,,,,,
,,,,,,,,,,,,,,,,,,,
,,,,,,,,,,,,,,,,,,,
,,,,,,,,,,,,,,,,,,,
,,,,,,,,,,,,,,,,,,,
,,,,,,,,,,,,,,,,,,,
,,,,,,,,,,,,,,,,,,,
,,,,,,,,,,,,,,,,,,,
,,,,,,,,,,,,,,,,,,,
,,,,,,,,,,,,,,,,,,,
,,,,,,,,,,,,,,,,,,,
,,,,,,,,,,,,,,,,,,,
,,,,,,,,,,,,,,,,,,,
,,,,,,,,,,,,,,,,,,,
,,,,,,,,,,,,,,,,,,,
,,,,,,,,,,,,,,,,,,,
,,,,,,,,,,,,,,,,,,,
,,,,,,,,,,,,,,,,,,,
,,,,,,,,,,,,,,,,,,,
,,,,,,,,,,,,,,,,,,,
,,,,,,,,,,,,,,,,,,,
,,,,,,,,,,,,,,,,,,,
,,,,,,,,,,,,,,,,,,,
,,,,,,,,,,,,,,,,,,,
,,,,,,,,,,,,,,,,,,,
,,,,,,,,,,,,,,,,,,,
,,,,,,,,,,,,,,,,,,,
,,,,,,,,,,,,,,,,,,,
,,,,,,,,,,,,,,,,,,,
,,,,,,,,,,,,,,,,,,,
,,,,,,,,,,,,,,,,,,,
,,,,,,,,,,,,,,,,,,,
,,,,,,,,,,,,,,,,,,,
,,,,,,,,,,,,,,,,,,,
,,,,,,,,,,,,,,,,,,,
,,,,,,,,,,,,,,,,,,,
,,,,,,,,,,,,,,,,,,,
,,,,,,,,,,,,,,,,,,,
,,,,,,,,,,,,,,,,,,,
,,,,,,,,,,,,,,,,,,,
,,,,,,,,,,,,,,,,,,,
,,,,,,,,,,,,,,,,,,,
,,,,,,,,,,,,,,,,,,,
,,,,,,,,,,,,,,,,,,,
,,,,,,,,,,,,,,,,,,,
,,,,,,,,,,,,,,,,,,,
,,,,,,,,,,,,,,,,,,,
,,,,,,,,,,,,,,,,,,,
,,,,,,,,,,,,,,,,,,,
,,,,,,,,,,,,,,,,,,,
,,,,,,,,,,,,,,,,,,,
,,,,,,,,,,,,,,,,,,,
,,,,,,,,,,,,,,,,,,,
,,,,,,,,,,,,,,,,,,,
,,,,,,,,,,,,,,,,,,,
,,,,,,,,,,,,,,,,,,,
,,,,,,,,,,,,,,,,,,,
,,,,,,,,,,,,,,,,,,,
,,,,,,,,,,,,,,,,,,,
,,,,,,,,,,,,,,,,,,,
,,,,,,,,,,,,,,,,,,,
,,,,,,,,,,,,,,,,,,,
,,,,,,,,,,,,,,,,,,,
,,,,,,,,,,,,,,,,,,,
,,,,,,,,,,,,,,,,,,,
,,,,,,,,,,,,,,,,,,,
,,,,,,,,,,,,,,,,,,,
,,,,,,,,,,,,,,,,,,,
,,,,,,,,,,,,,,,,,,,
,,,,,,,,,,,,,,,,,,,
,,,,,,,,,,,,,,,,,,,
,,,,,,,,,,,,,,,,,,,
,,,,,,,,,,,,,,,,,,,
,,,,,,,,,,,,,,,,,,,
,,,,,,,,,,,,,,,,,,,
,,,,,,,,,,,,,,,,,,,
,,,,,,,,,,,,,,,,,,,
,,,,,,,,,,,,,,,,,,,
,,,,,,,,,,,,,,,,,,,
,,,,,,,,,,,,,,,,,,,
,,,,,,,,,,,,,,,,,,,
,,,,,,,,,,,,,,,,,,,
,,,,,,,,,,,,,,,,,,,
,,,,,,,,,,,,,,,,,,,
,,,,,,,,,,,,,,,,,,,
,,,,,,,,,,,,,,,,,,,
,,,,,,,,,,,,,,,,,,,
,,,,,,,,,,,,,,,,,,,
,,,,,,,,,,,,,,,,,,,
,,,,,,,,,,,,,,,,,,,
,,,,,,,,,,,,,,,,,,,
,,,,,,,,,,,,,,,,,,,
,,,,,,,,,,,,,,,,,,,
,,,,,,,,,,,,,,,,,,,
,,,,,,,,,,,,,,,,,,,
,,,,,,,,,,,,,,,,,,,
,,,,,,,,,,,,,,,,,,,
,,,,,,,,,,,,,,,,,,,
,,,,,,,,,,,,,,,,,,,
,,,,,,,,,,,,,,,,,,,
,,,,,,,,,,,,,,,,,,,
,,,,,,,,,,,,,,,,,,,
,,,,,,,,,,,,,,,,,,,
,,,,,,,,,,,,,,,,,,,
,,,,,,,,,,,,,,,,,,,
,,,,,,,,,,,,,,,,,,,
,,,,,,,,,,,,,,,,,,,
,,,,,,,,,,,,,,,,,,,
,,,,,,,,,,,,,,,,,,,
,,,,,,,,,,,,,,,,,,,
,,,,,,,,,,,,,,,,,,,
,,,,,,,,,,,,,,,,,,,
,,,,,,,,,,,,,,,,,,,
,,,,,,,,,,,,,,,,,,,
,,,,,,,,,,,,,,,,,,,
,,,,,,,,,,,,,,,,,,,
,,,,,,,,,,,,,,,,,,,
,,,,,,,,,,,,,,,,,,,
,,,,,,,,,,,,,,,,,,,
,,,,,,,,,,,,,,,,,,,
,,,,,,,,,,,,,,,,,,,
,,,,,,,,,,,,,,,,,,,
,,,,,,,,,,,,,,,,,,,
,,,,,,,,,,,,,,,,,,,
,,,,,,,,,,,,,,,,,,,
,,,,,,,,,,,,,,,,,,,
,,,,,,,,,,,,,,,,,,,
,,,,,,,,,,,,,,,,,,,
,,,,,,,,,,,,,,,,,,,
,,,,,,,,,,,,,,,,,,,
,,,,,,,,,,,,,,,,,,,
,,,,,,,,,,,,,,,,,,,
,,,,,,,,,,,,,,,,,,,
,,,,,,,,,,,,,,,,,,,
,,,,,,,,,,,,,,,,,,,
,,,,,,,,,,,,,,,,,,,
,,,,,,,,,,,,,,,,,,,
,,,,,,,,,,,,,,,,,,,
,,,,,,,,,,,,,,,,,,,
,,,,,,,,,,,,,,,,,,,
,,,,,,,,,,,,,,,,,,,
,,,,,,,,,,,,,,,,,,,
,,,,,,,,,,,,,,,,,,,
,,,,,,,,,,,,,,,,,,,
,,,,,,,,,,,,,,,,,,,
,,,,,,,,,,,,,,,,,,,
,,,,,,,,,,,,,,,,,,,
,,,,,,,,,,,,,,,,,,,
,,,,,,,,,,,,,,,,,,,
,,,,,,,,,,,,,,,,,,,
,,,,,,,,,,,,,,,,,,,
,,,,,,,,,,,,,,,,,,,
,,,,,,,,,,,,,,,,,,,
,,,,,,,,,,,,,,,,,,,
,,,,,,,,,,,,,,,,,,,
,,,,,,,,,,,,,,,,,,,
,,,,,,,,,,,,,,,,,,,
,,,,,,,,,,,,,,,,,,,
,,,,,,,,,,,,,,,,,,,
,,,,,,,,,,,,,,,,,,,
,,,,,,,,,,,,,,,,,,,
,,,,,,,,,,,,,,,,,,,
,,,,,,,,,,,,,,,,,,,
,,,,,,,,,,,,,,,,,,,
,,,,,,,,,,,,,,,,,,,
,,,,,,,,,,,,,,,,,,,
,,,,,,,,,,,,,,,,,,,
,,,,,,,,,,,,,,,,,,,
,,,,,,,,,,,,,,,,,,,
,,,,,,,,,,,,,,,,,,,
,,,,,,,,,,,,,,,,,,,
,,,,,,,,,,,,,,,,,,,
,,,,,,,,,,,,,,,,,,,
,,,,,,,,,,,,,,,,,,,
,,,,,,,,,,#REF!,4283,3,0,4283,3,0,0,0%,#DIV/0!
,,,,,,,,,,#REF!,4283,3,0,4283,3,0,0,0%,#DIV/0!
,,,,,,,,,,#REF!,4283,3,0,4283,3,0,0,0%,#DIV/0!
,,,,,,,,,,#REF!,4283,3,0,4283,3,0,0,0%,#DIV/0!
,,,,,,,,,,#REF!,4283,3,0,4283,3,0,0,0%,#DIV/0!
,,,,,,,,,,#REF!,4283,3,0,4283,3,0,0,0%,#DIV/0!
,,,,,,,,,,#REF!,4283,3,0,4283,3,0,0,0%,#DIV/0!
,,,,,,,,,,#REF!,4283,3,0,4283,3,0,0,0%,#DIV/0!
,,,,,,,,,,#REF!,4283,3,0,4283,3,0,0,0%,#DIV/0!
,,,,,,,,,,#REF!,4283,3,0,4283,3,0,0,0%,#DIV/0!
,,,,,,,,,,#REF!,4283,3,0,4283,3,0,0,0%,#DIV/0!
,,,,,,,,,,#REF!,4283,3,0,4283,3,0,0,0%,#DIV/0!
,,,,,,,,,,#REF!,4283,3,0,4283,3,0,0,0%,#DIV/0!
,,,,,,,,,,#REF!,4283,3,0,4283,3,0,0,0%,#DIV/0!
,,,,,,,,,,#REF!,4283,3,0,4283,3,0,0,0%,#DIV/0!
,,,,,,,,,,#REF!,4283,3,0,4283,3,0,0,0%,#DIV/0!
,,,,,,,,,,#REF!,4283,3,0,4283,3,0,0,0%,#DIV/0!
,,,,,,,,,,#REF!,4283,3,0,4283,3,0,0,0%,#DIV/0!
,,,,,,,,,,#REF!,4283,3,0,4283,3,0,0,0%,#DIV/0!
,,,,,,,,,,#REF!,4283,3,0,4283,3,0,0,0%,#DIV/0!
,,,,,,,,,,#REF!,4283,3,0,4283,3,0,0,0%,#DIV/0!
,,,,,,,,,,#REF!,4283,3,0,4283,3,0,0,0%,#DIV/0!
,,,,,,,,,,#REF!,4283,3,0,4283,3,0,0,0%,#DIV/0!
,,,,,,,,,,#REF!,4283,3,0,4283,3,0,0,0%,#DIV/0!
,,,,,,,,,,#REF!,4283,3,0,4283,3,0,0,0%,#DIV/0!
,,,,,,,,,,#REF!,4283,3,0,4283,3,0,0,0%,#DIV/0!
,,,,,,,,,,#REF!,4283,3,0,4283,3,0,0,0%,#DIV/0!
,,,,,,,,,,#REF!,4283,3,0,4283,3,0,0,0%,#DIV/0!
,,,,,,,,,,#REF!,4283,3,0,4283,3,0,0,0%,#DIV/0!
,,,,,,,,,,#REF!,4283,3,0,4283,3,0,0,0%,#DIV/0!
,,,,,,,,,,#REF!,4283,3,0,4283,3,0,0,0%,#DIV/0!
,,,,,,,,,,#REF!,4283,3,0,4283,3,0,0,0%,#DIV/0!
,,,,,,,,,,#REF!,4283,3,0,4283,3,0,0,0%,#DIV/0!
,,,,,,,,,,#REF!,4283,3,0,4283,3,0,0,0%,#DIV/0!
,,,,,,,,,,#REF!,4283,3,0,4283,3,0,0,0%,#DIV/0!
,,,,,,,,,,#REF!,4283,3,0,4283,3,0,0,0%,#DIV/0!
,,,,,,,,,,#REF!,4283,3,0,4283,3,0,0,0%,#DIV/0!
,,,,,,,,,,#REF!,4283,3,0,4283,3,0,0,0%,#DIV/0!
,,,,,,,,,,#REF!,4283,3,0,4283,3,0,0,0%,#DIV/0!
,,,,,,,,,,#REF!,4283,3,0,4283,3,0,0,0%,#DIV/0!
,,,,,,,,,,#REF!,4283,3,0,4283,3,0,0,0%,#DIV/0!
,,,,,,,,,,#REF!,4283,3,0,4283,3,0,0,0%,#DIV/0!
,,,,,,,,,,#REF!,4283,3,0,4283,3,0,0,0%,#DIV/0!
,,,,,,,,,,#REF!,4283,3,0,4283,3,0,0,0%,#DIV/0!
,,,,,,,,,,#REF!,4283,3,0,4283,3,0,0,0%,#DIV/0!
,,,,,,,,,,#REF!,4283,3,0,4283,3,0,0,0%,#DIV/0!
,,,,,,,,,,#REF!,4283,3,0,4283,3,0,0,0%,#DIV/0!
,,,,,,,,,,#REF!,4283,3,0,4283,3,0,0,0%,#DIV/0!
,,,,,,,,,,#REF!,4283,3,0,4283,3,0,0,0%,#DIV/0!
,,,,,,,,,,#REF!,4283,3,0,4283,3,0,0,0%,#DIV/0!
,,,,,,,,,,#REF!,4283,3,0,4283,3,0,0,0%,#DIV/0!
,,,,,,,,,,#REF!,4283,3,0,4283,3,0,0,0%,#DIV/0!
,,,,,,,,,,#REF!,4283,3,0,4283,3,0,0,0%,#DIV/0!
,,,,,,,,,,#REF!,4283,3,0,4283,3,0,0,0%,#DIV/0!
,,,,,,,,,,#REF!,4283,3,0,4283,3,0,0,0%,#DIV/0!
,,,,,,,,,,#REF!,4283,3,0,4283,3,0,0,0%,#DIV/0!
,,,,,,,,,,#REF!,4283,3,0,4283,3,0,0,0%,#DIV/0!
,,,,,,,,,,#REF!,4283,3,0,4283,3,0,0,0%,#DIV/0!
,,,,,,,,,,#REF!,4283,3,0,4283,3,0,0,0%,#DIV/0!
,,,,,,,,,,#REF!,4283,3,0,4283,3,0,0,0%,#DIV/0!
,,,,,,,,,,#REF!,4283,3,0,4283,3,0,0,0%,#DIV/0!
,,,,,,,,,,#REF!,4283,3,0,4283,3,0,0,0%,#DIV/0!
,,,,,,,,,,#REF!,4283,3,0,4283,3,0,0,0%,#DIV/0!
,,,,,,,,,,#REF!,4283,3,0,4283,3,0,0,0%,#DIV/0!
,,,,,,,,,,#REF!,4283,3,0,4283,3,0,0,0%,#DIV/0!
,,,,,,,,,,#REF!,4283,3,0,4283,3,0,0,0%,#DIV/0!
,,,,,,,,,,#REF!,4283,3,0,4283,3,0,0,0%,#DIV/0!
,,,,,,,,,,#REF!,4283,3,0,4283,3,0,0,0%,#DIV/0!
,,,,,,,,,,#REF!,4283,3,0,4283,3,0,0,0%,#DIV/0!
,,,,,,,,,,#REF!,4283,3,0,4283,3,0,0,0%,#DIV/0!
,,,,,,,,,,#REF!,4283,3,0,4283,3,0,0,0%,#DIV/0!
,,,,,,,,,,#REF!,4283,3,0,4283,3,0,0,0%,#DIV/0!
,,,,,,,,,,#REF!,4283,3,0,4283,3,0,0,0%,#DIV/0!
,,,,,,,,,,#REF!,4283,3,0,4283,3,0,0,0%,#DIV/0!
,,,,,,,,,,#REF!,4283,3,0,4283,3,0,0,0%,#DIV/0!
,,,,,,,,,,#REF!,4283,3,0,4283,3,0,0,0%,#DIV/0!
,,,,,,,,,,#REF!,4283,3,0,4283,3,0,0,0%,#DIV/0!
,,,,,,,,,,#REF!,4283,3,0,4283,3,0,0,0%,#DIV/0!
,,,,,,,,,,#REF!,4283,3,0,4283,3,0,0,0%,#DIV/0!
,,,,,,,,,,#REF!,4283,3,0,4283,3,0,0,0%,#DIV/0!
,,,,,,,,,,#REF!,4283,3,0,4283,3,0,0,0%,#DIV/0!
,,,,,,,,,,#REF!,4283,3,0,4283,3,0,0,0%,#DIV/0!
,,,,,,,,,,#REF!,4283,3,0,4283,3,0,0,0%,#DIV/0!
,,,,,,,,,,#REF!,4283,3,0,4283,3,0,0,0%,#DIV/0!
,,,,,,,,,,#REF!,4283,3,0,4283,3,0,0,0%,#DIV/0!
,,,,,,,,,,#REF!,4283,3,0,4283,3,0,0,0%,#DIV/0!
,,,,,,,,,,#REF!,4283,3,0,4283,3,0,0,0%,#DIV/0!
,,,,,,,,,,#REF!,4283,3,0,4283,3,0,0,0%,#DIV/0!
,,,,,,,,,,#REF!,4283,3,0,4283,3,0,0,0%,#DIV/0!
,,,,,,,,,,#REF!,4283,3,0,4283,3,0,0,0%,#DIV/0!
,,,,,,,,,,#REF!,4283,3,0,4283,3,0,0,0%,#DIV/0!
,,,,,,,,,,#REF!,4283,3,0,4283,3,0,0,0%,#DIV/0!
,,,,,,,,,,#REF!,4283,3,0,4283,3,0,0,0%,#DIV/0!
,,,,,,,,,,#REF!,4283,3,0,4283,3,0,0,0%,#DIV/0!
,,,,,,,,,,#REF!,4283,3,0,4283,3,0,0,0%,#DIV/0!
,,,,,,,,,,#REF!,4283,3,0,4283,3,0,0,0%,#DIV/0!
,,,,,,,,,,#REF!,4283,3,0,4283,3,0,0,0%,#DIV/0!
,,,,,,,,,,#REF!,4283,3,0,4283,3,0,0,0%,#DIV/0!
,,,,,,,,,,#REF!,4283,3,0,4283,3,0,0,0%,#DIV/0!
,,,,,,,,,,#REF!,4283,3,0,4283,3,0,0,0%,#DIV/0!
,,,,,,,,,,#REF!,4283,3,0,4283,3,0,0,0%,#DIV/0!
,,,,,,,,,,#REF!,4283,3,0,4283,3,0,0,0%,#DIV/0!
,,,,,,,,,,#REF!,4283,3,0,4283,3,0,0,0%,#DIV/0!
,,,,,,,,,,#REF!,4283,3,0,4283,3,0,0,0%,#DIV/0!
